{"movies":[
    {
    "title":"The Flash",
    "id":1,
    "imageUrl":"http://cdn3-www.superherohype.com/assets/uploads/gallery/the-flash-2x15/12771634_1000420230050280_1499915054664837033_o.jpg",
    "mainCast":["John","Jane"],
    "fullCast":["John","Jane","Jenny","Robert", "William", "Tom", "Leonardo", "Angelina", "Nicole", "Emily", "Kevin", "Robin"],
    "description":"Lorem ipsum dolor sit amet, vocibus repudiandae eos ex. Eum putent aliquam ad,
                  fierent pericula consequat qui eu. Ut vis legere labores eleifend. Usu et reque denique.
                  Quidam scriptorem ne vix, probatus periculis ocurreret cum id. In lorem dolores argumentum pri.
                  Pro quot splendide ne, pro sint senserit voluptatibus cu, vel in summo ignota gloriatur.
                   Ius summo lobortis senserit in, vel iuvaret feugait accusamus ad, prima quaeque te vel.
                   Sed omnium verear integre ut, atomorum efficiendi pri ne, et quo mundi prompta quaeque.
                   Ius modus deleniti dissentiet ad, vix at nemore recteque, sit placerat invidunt adversarium ex.",
    "imdb":"8.5",
    "rottenTomatoes":"85%"
    },

    {
      "title":"Silicon Valley",
      "id":2,
      "imageUrl":"https://www.wired.com/wp-content/uploads/2016/03/silicon_valley_opener4.jpg",
      "mainCast":["John","Jane"],
      "fullCast":["John","Jane","Jenny","Robert", "William", "Tom", "Leonardo", "Angelina", "Nicole", "Emily", "Kevin", "Robin"],
      "description":"Lorem ipsum dolor sit amet, vocibus repudiandae eos ex. Eum putent aliquam ad,
                    fierent pericula consequat qui eu. Ut vis legere labores eleifend. Usu et reque denique.
                    Quidam scriptorem ne vix, probatus periculis ocurreret cum id. In lorem dolores argumentum pri.
                    Pro quot splendide ne, pro sint senserit voluptatibus cu, vel in summo ignota gloriatur.
                     Ius summo lobortis senserit in, vel iuvaret feugait accusamus ad, prima quaeque te vel.
                     Sed omnium verear integre ut, atomorum efficiendi pri ne, et quo mundi prompta quaeque.
                     Ius modus deleniti dissentiet ad, vix at nemore recteque, sit placerat invidunt adversarium ex.",
      "imdb":"9",
      "rottenTomatoes":"90%"
    },

    {
      "title":"Scorpion",
      "id":3,
      "imageUrl":"http://cdn-uploads.gameblog.fr/images/blogs/36115/202746.jpg",
      "mainCast":["John","Jane"],
      "fullCast":["John","Jane","Jenny","Robert", "William", "Tom", "Leonardo", "Angelina", "Nicole", "Emily", "Kevin", "Robin"],
      "description":"Lorem ipsum dolor sit amet, vocibus repudiandae eos ex. Eum putent aliquam ad,
                    fierent pericula consequat qui eu. Ut vis legere labores eleifend. Usu et reque denique.
                    Quidam scriptorem ne vix, probatus periculis ocurreret cum id. In lorem dolores argumentum pri.
                    Pro quot splendide ne, pro sint senserit voluptatibus cu, vel in summo ignota gloriatur.
                     Ius summo lobortis senserit in, vel iuvaret feugait accusamus ad, prima quaeque te vel.
                     Sed omnium verear integre ut, atomorum efficiendi pri ne, et quo mundi prompta quaeque.
                     Ius modus deleniti dissentiet ad, vix at nemore recteque, sit placerat invidunt adversarium ex.",
      "imdb":"8",
      "rottenTomatoes":"80%"
    }
]}
