{"movie":
    {
    "title":"The Flash",
    "id":1,
    "imageUrl":"http://cdn3-www.superherohype.com/assets/uploads/gallery/the-flash-2x15/12771634_1000420230050280_1499915054664837033_o.jpg",
    "mainCast":["John","Jane"],
    "fullCast":[
      {
        "name":"John",
        "nickname":"franc"
      },

      {
        "name":"Jane",
        "nickname":"franc"
      },

      {
        "name":"Jenny",
        "nickname":"jen"
      },

      {
        "name":"Robert",
        "nickname":"franc"
      },

      {
        "name":"William",
        "nickname":"franc"
      },

      {
        "name":"Tom",
        "nickname":"franc"
      },

      {
        "name":"Leonardo",
        "nickname":"franc"
      },

      {
        "name":"Angelina",
        "nickname":"franc"
      },

      {
        "name":"Nicole",
        "nickname":"franc"
      },

      {
        "name":"Emily",
        "nickname":"franc"
      }
    ],
    "description":"Lorem ipsum dolor sit amet, vocibus repudiandae eos ex. Eum putent aliquam ad,fierent pericula consequat qui eu. Ut vis legere labores eleifend. Usu et reque denique.",
    "episodes":[
                  {
                    "imageUrl":"http://cdn3-www.superherohype.com/assets/uploads/gallery/the-flash-2x15/12771634_1000420230050280_1499915054664837033_o.jpg",
                    "episodeName":"chapter1",
                    "time":"February 1st 2013"
                  },
                  {
                    "imageUrl":"http://cdn3-www.superherohype.com/assets/uploads/gallery/the-flash-2x15/12771634_1000420230050280_1499915054664837033_o.jpg",
                    "episodeName":"chapter2",
                    "time":"February 1st 2013"
                  },
                  {
                    "imageUrl":"http://cdn3-www.superherohype.com/assets/uploads/gallery/the-flash-2x15/12771634_1000420230050280_1499915054664837033_o.jpg",
                    "episodeName":"chapter3",
                    "time":"February 1st 2013"
                  },
                  {
                    "imageUrl":"http://cdn3-www.superherohype.com/assets/uploads/gallery/the-flash-2x15/12771634_1000420230050280_1499915054664837033_o.jpg",
                    "episodeName":"chapter4",
                    "time":"February 1st 2013"
                  }
                ],
    "imdb":"8.5",
    "rottenTomatoes":"85%",
    "genre":"Drama",
    "runtime":"60"
    }
}
